{
	"title" : "Formation",
	"formation" : [
		{
			"timeperiod" : "2020 - 2021",
			"school" : "CNAM",
			"description" : "Formation du passe numérique pro, technicienne DEVOPS, c'est une formation courte et diplomante, "
		},
		{
			"timeperiod" : "juin 2020",
			"school" : "Lycée jacques monod 75002",
			"description" : "Bac pro Assp ( accompagnement , soins et service à la personne)"
		}
	]
}